%!PS
%%Title: Cub Scout award labels
newpath
36 36 moveto 36 756 lineto
216 36 moveto 216 756 lineto
396 36 moveto 396 756 lineto
576 36 moveto 576 756 lineto
36 36 moveto 576 36 lineto
36 216 moveto 576 216 lineto
36 396 moveto 576 396 lineto
36 576 moveto 576 576 lineto
36 756 moveto 576 756 lineto
0.8 setgray 0.5 setlinewidth stroke
/Helvetica findfont 30 scalefont setfont 0.8 setgray
(1) dup stringwidth pop 207 exch sub 177 moveto show
/Helvetica findfont 15 scalefont setfont 0 setgray
45 192 moveto (Alice) show 45 177 moveto (SMITH) show
/Helvetica findfont 11 scalefont setfont 0 setgray
45 154 moveto (Shooting Sports) show
45 141 moveto (Cyber-chip) show
45 128 moveto (Emergency Prepardness) show
/Helvetica findfont 30 scalefont setfont 0.8 setgray
(1) dup stringwidth pop 387 exch sub 177 moveto show
/Helvetica findfont 15 scalefont setfont 0 setgray
225 192 moveto (Bob) show 225 177 moveto (JONES) show
/Helvetica findfont 11 scalefont setfont 0 setgray
225 154 moveto (World Conservation) show
225 141 moveto (Emergency Prepardness) show
/Helvetica findfont 30 scalefont setfont 0.8 setgray
(2) dup stringwidth pop 567 exch sub 177 moveto show
/Helvetica findfont 15 scalefont setfont 0 setgray
405 192 moveto (Charlie) show 405 177 moveto (ROOT) show
/Helvetica findfont 11 scalefont setfont 0 setgray
405 154 moveto (Shooting Sports) show
405 141 moveto (Cyber-chip) show
405 128 moveto (Emergency Prepardness) show
/Helvetica findfont 30 scalefont setfont 0.8 setgray
(2) dup stringwidth pop 207 exch sub 357 moveto show
/Helvetica findfont 15 scalefont setfont 0 setgray
45 372 moveto (David) show 45 357 moveto (ERICSON) show
/Helvetica findfont 11 scalefont setfont 0 setgray
45 334 moveto (World Conservation) show
45 321 moveto (Cyber-chip) show
/Helvetica findfont 30 scalefont setfont 0.8 setgray
(3) dup stringwidth pop 387 exch sub 357 moveto show
/Helvetica findfont 15 scalefont setfont 0 setgray
225 372 moveto (Eric) show 225 357 moveto (DAVIDSON) show
/Helvetica findfont 11 scalefont setfont 0 setgray
225 334 moveto (Cyber-chip) show
225 321 moveto (Emergency Prepardness) show
/Helvetica findfont 30 scalefont setfont 0.8 setgray
(4) dup stringwidth pop 567 exch sub 357 moveto show
/Helvetica findfont 15 scalefont setfont 0 setgray
405 372 moveto (Frank) show 405 357 moveto (LIN) show
/Helvetica findfont 11 scalefont setfont 0 setgray
405 334 moveto (World Conservation) show
405 321 moveto (Cyber-chip) show
/Helvetica findfont 30 scalefont setfont 0.8 setgray
(5) dup stringwidth pop 207 exch sub 537 moveto show
/Helvetica findfont 15 scalefont setfont 0 setgray
45 552 moveto (George) show 45 537 moveto (WASHINGTON) show
/Helvetica findfont 11 scalefont setfont 0 setgray
45 514 moveto (World Conservation) show
/Helvetica findfont 30 scalefont setfont 0.8 setgray
(5) dup stringwidth pop 387 exch sub 537 moveto show
/Helvetica findfont 15 scalefont setfont 0 setgray
225 552 moveto (Harry) show 225 537 moveto (HENDERSON) show
/Helvetica findfont 11 scalefont setfont 0 setgray
225 514 moveto (Shooting Sports) show
225 501 moveto (World Conservation) show
225 488 moveto (Cyber-chip) show
225 474 moveto (Emergency Prepardness) show
showpage
